%YAML 1.1
%TAG !u! tag:unity3d.com,2011:
--- !u!74 &7400000
AnimationClip:
  m_ObjectHideFlags: 0
  m_CorrespondingSourceObject: {fileID: 0}
  m_PrefabInternal: {fileID: 0}
  m_Name: Coin
  serializedVersion: 6
  m_Legacy: 0
  m_Compressed: 0
  m_UseHighQualityCurve: 1
  m_RotationCurves: []
  m_CompressedRotationCurves: []
  m_EulerCurves: []
  m_PositionCurves: []
  m_ScaleCurves: []
  m_FloatCurves: []
  m_PPtrCurves:
  - curve:
    - time: 0
      value: {fileID: 21300000, guid: 9db41d18be4cf464dac4d0d80aaf0d3e, type: 3}
    - time: 0.083333336
      value: {fileID: 21300000, guid: a5725a2c14e29e9499c3befbaeb50957, type: 3}
    - time: 0.16666667
      value: {fileID: 21300000, guid: d1533c47465bbac4f94b67ec11c5877d, type: 3}
    - time: 0.25
      value: {fileID: 21300000, guid: 8f57a81f8dc4e4c468e2d1f2512da462, type: 3}
    - time: 0.33333334
      value: {fileID: 21300000, guid: bdafa52a024d07c4aa3b8b0aa1d0c133, type: 3}
    - time: 0.41666666
      value: {fileID: 21300000, guid: 84a4bae8e065ce745b7e2a14165233bb, type: 3}
    - time: 0.5
      value: {fileID: 21300000, guid: d0e33427a0b527244ba966709667df2d, type: 3}
    - time: 0.5833333
      value: {fileID: 21300000, guid: de117cbc37511b848b22b835e439ae2c, type: 3}
    - time: 0.6666667
      value: {fileID: 21300000, guid: c776b81a201705e46a99e705ef7dd911, type: 3}
    - time: 0.75
      value: {fileID: 21300000, guid: 63eb2926d8a92c642bde1ff69ec40cb2, type: 3}
    - time: 0.8333333
      value: {fileID: 21300000, guid: aaad3284801340a468fc71de9ff70a8f, type: 3}
    - time: 0.9166667
      value: {fileID: 21300000, guid: 525b6edcba52ea74e878e12498ed8941, type: 3}
    - time: 1
      value: {fileID: 21300000, guid: 6baf9db56a64a004fbadf13daac16a79, type: 3}
    - time: 1.0833334
      value: {fileID: 21300000, guid: cd1df8c683f1e4746ae4f44d63322440, type: 3}
    - time: 1.1666666
      value: {fileID: 21300000, guid: 4b6d274fbaa80554e830aa29e2b6760f, type: 3}
    - time: 1.25
      value: {fileID: 21300000, guid: 398fd5d5197732647b1cb20d54e16bc5, type: 3}
    - time: 1.3333334
      value: {fileID: 21300000, guid: 97fc208fec72d8e4c97b80b1e6123c66, type: 3}
    attribute: m_Sprite
    path: 
    classID: 212
    script: {fileID: 0}
  m_SampleRate: 12
  m_WrapMode: 0
  m_Bounds:
    m_Center: {x: 0, y: 0, z: 0}
    m_Extent: {x: 0, y: 0, z: 0}
  m_ClipBindingConstant:
    genericBindings:
    - serializedVersion: 2
      path: 0
      attribute: 0
      script: {fileID: 0}
      typeID: 212
      customType: 23
      isPPtrCurve: 1
    pptrCurveMapping:
    - {fileID: 21300000, guid: 9db41d18be4cf464dac4d0d80aaf0d3e, type: 3}
    - {fileID: 21300000, guid: a5725a2c14e29e9499c3befbaeb50957, type: 3}
    - {fileID: 21300000, guid: d1533c47465bbac4f94b67ec11c5877d, type: 3}
    - {fileID: 21300000, guid: 8f57a81f8dc4e4c468e2d1f2512da462, type: 3}
    - {fileID: 21300000, guid: bdafa52a024d07c4aa3b8b0aa1d0c133, type: 3}
    - {fileID: 21300000, guid: 84a4bae8e065ce745b7e2a14165233bb, type: 3}
    - {fileID: 21300000, guid: d0e33427a0b527244ba966709667df2d, type: 3}
    - {fileID: 21300000, guid: de117cbc37511b848b22b835e439ae2c, type: 3}
    - {fileID: 21300000, guid: c776b81a201705e46a99e705ef7dd911, type: 3}
    - {fileID: 21300000, guid: 63eb2926d8a92c642bde1ff69ec40cb2, type: 3}
    - {fileID: 21300000, guid: aaad3284801340a468fc71de9ff70a8f, type: 3}
    - {fileID: 21300000, guid: 525b6edcba52ea74e878e12498ed8941, type: 3}
    - {fileID: 21300000, guid: 6baf9db56a64a004fbadf13daac16a79, type: 3}
    - {fileID: 21300000, guid: cd1df8c683f1e4746ae4f44d63322440, type: 3}
    - {fileID: 21300000, guid: 4b6d274fbaa80554e830aa29e2b6760f, type: 3}
    - {fileID: 21300000, guid: 398fd5d5197732647b1cb20d54e16bc5, type: 3}
    - {fileID: 21300000, guid: 97fc208fec72d8e4c97b80b1e6123c66, type: 3}
  m_AnimationClipSettings:
    serializedVersion: 2
    m_AdditiveReferencePoseClip: {fileID: 0}
    m_AdditiveReferencePoseTime: 0
    m_StartTime: 0
    m_StopTime: 1.4166667
    m_OrientationOffsetY: 0
    m_Level: 0
    m_CycleOffset: 0
    m_HasAdditiveReferencePose: 0
    m_LoopTime: 1
    m_LoopBlend: 0
    m_LoopBlendOrientation: 0
    m_LoopBlendPositionY: 0
    m_LoopBlendPositionXZ: 0
    m_KeepOriginalOrientation: 0
    m_KeepOriginalPositionY: 1
    m_KeepOriginalPositionXZ: 0
    m_HeightFromFeet: 0
    m_Mirror: 0
  m_EditorCurves: []
  m_EulerEditorCurves: []
  m_HasGenericRootTransform: 0
  m_HasMotionFloatCurves: 0
  m_GenerateMotionCurves: 0
  m_Events: []
